{
"images":[
  {
    "path":"/images/women-in-rain.jpg",
    "tags":"women,rain,umbrella,images/women-in-rain.jpg"
  },
  {
    "path":"/images/glacier.jpg",
    "tags":"mountain,snow,glacier,images/glacier.jpg"
  },
  {
    "path":"/images/calm.jpg",
    "tags":"river,nature,images/calm.jpg"
  },
  {
     "path":"/images/gaurav.jpg",
     "tags":"gaurav,me,images/gaurav.jpg"
  }
]
}
